hyperparameter-tuning – “Lab 6”
…
collect_metrics(model_params)

# A tibble: 60 × 8
   hidden_units       penalty .metric .estimator  mean     n std_err .config    
          <int>         <dbl> <chr>   <chr>      <dbl> <int>   <dbl> <chr>      
 1            1 0.000000144   mae     standard   0.395    10  0.0219 Preprocess…
 2            1 0.000000144   rmse    standard   0.584    10  0.0378 Preprocess…
 3            1 0.000000144   rsq     standard   0.742    10  0.0188 Preprocess…
 4            1 0.0000616     mae     standard   0.394    10  0.0224 Preprocess…
 5            1 0.0000616     rmse    standard   0.587    10  0.0404 Preprocess…
 6            1 0.0000616     rsq     standard   0.741    10  0.0203 Preprocess…
 7            2 0.0264        mae     standard   0.344    10  0.0192 Preprocess…
 8            2 0.0264        rmse    standard   0.557    10  0.0361 Preprocess…
 9            2 0.0264        rsq     standard   0.760    10  0.0213 Preprocess…
10            2 0.00000000113 mae     standard   0.347    10  0.0176 Preprocess…
# ℹ 50 more rows
…
